00000013          
00500293          
00503023          
00200293          
00503423          
00900293          
00503823          
00100293          
00503c23          
ffb00293          
02503023          
ff800513          
02000613          
00850513          
02c50863          
ff800593          
00858593          
fec588e3          
00858293          
0005b303          
0002b383          
0063c463          
00000663          
0062b023          
0075b023          
fc000ee3          
00000013          
00000013          
00000013          
00000013          
00003283          
00803283          
01003283          
01803283          
02003283          
