\relax 
\providecommand\hyper@newdestlabel[2]{}
\providecommand\HyperFirstAtBeginDocument{\AtBeginDocument}
\HyperFirstAtBeginDocument{\ifx\hyper@anchor\@undefined
\global\let\oldcontentsline\contentsline
\gdef\contentsline#1#2#3#4{\oldcontentsline{#1}{#2}{#3}}
\global\let\oldnewlabel\newlabel
\gdef\newlabel#1#2{\newlabelxx{#1}#2}
\gdef\newlabelxx#1#2#3#4#5#6{\oldnewlabel{#1}{{#2}{#3}}}
\AtEndDocument{\ifx\hyper@anchor\@undefined
\let\contentsline\oldcontentsline
\let\newlabel\oldnewlabel
\fi}
\fi}
\global\let\hyper@last\relax 
\gdef\HyperFirstAtBeginDocument#1{#1}
\providecommand\HyField@AuxAddToFields[1]{}
\providecommand\HyField@AuxAddToCoFields[2]{}
\citation{comp}
\@writefile{toc}{\contentsline {section}{\numberline {1}Struttura dell'ISA RISCV - RV64I}{1}{section.1}\protected@file@percent }
\@writefile{lof}{\contentsline {figure}{\numberline {1}{\ignorespaces Formato delle istruzioni a 32 bit del RISCV.}}{1}{figure.1}\protected@file@percent }
\newlabel{default}{{1}{1}{Formato delle istruzioni a 32 bit del RISCV}{figure.1}{}}
\citation{comp}
\@writefile{lot}{\contentsline {table}{\numberline {1}{\ignorespaces Subset di RV64I supportato nel seguito}}{2}{table.1}\protected@file@percent }
\@writefile{toc}{\contentsline {section}{\numberline {2}Descrizione dei 5 stadi della pipeline}{2}{section.2}\protected@file@percent }
\@writefile{lof}{\contentsline {figure}{\numberline {2}{\ignorespaces Struttura della pipeline a 5 stadi RISCV. Si noti la mancanza delle unita' di hazard detection e di forwarding.}}{3}{figure.2}\protected@file@percent }
\newlabel{pipelinefigure}{{2}{3}{Struttura della pipeline a 5 stadi RISCV. Si noti la mancanza delle unita' di hazard detection e di forwarding}{figure.2}{}}
\@writefile{toc}{\contentsline {section}{\numberline {3}Implementazione VHDL della pipeline}{4}{section.3}\protected@file@percent }
\@writefile{toc}{\contentsline {subsection}{\numberline {3.1}IF stage}{4}{subsection.3.1}\protected@file@percent }
\@writefile{toc}{\contentsline {subsection}{\numberline {3.2}ID stage}{5}{subsection.3.2}\protected@file@percent }
\citation{comp}
\@writefile{toc}{\contentsline {subsection}{\numberline {3.3}EX stage}{7}{subsection.3.3}\protected@file@percent }
\@writefile{lof}{\contentsline {figure}{\numberline {3}{\ignorespaces Struttura dei mux di ingresso alla ALU e all'unit\IeC {\'a} di controllo del branch, posta in parallelo alla ALU. Si noti anche l'aggiunta della \emph  {hazard detection unit}, descritta in seguito}}{8}{figure.3}\protected@file@percent }
\citation{comp}
\@writefile{lot}{\contentsline {table}{\numberline {2}{\ignorespaces Output della logica di forwarding a seconda della fonte dell'hazard.}}{9}{table.2}\protected@file@percent }
\newlabel{fwdtable}{{2}{9}{Output della logica di forwarding a seconda della fonte dell'hazard}{table.2}{}}
\@writefile{toc}{\contentsline {subsection}{\numberline {3.4}MEM stage}{9}{subsection.3.4}\protected@file@percent }
\@writefile{toc}{\contentsline {subsection}{\numberline {3.5}Pipeline Stage registers}{10}{subsection.3.5}\protected@file@percent }
\@writefile{toc}{\contentsline {subsection}{\numberline {3.6}Full datapath}{11}{subsection.3.6}\protected@file@percent }
\@writefile{toc}{\contentsline {section}{\numberline {4}Testbench e simulazioni}{11}{section.4}\protected@file@percent }
\@writefile{toc}{\contentsline {subsection}{\numberline {4.1}fibo.s}{13}{subsection.4.1}\protected@file@percent }
\@writefile{lof}{\contentsline {figure}{\numberline {4}{\ignorespaces Si notino i 3 impulsi di clock che servono all'istruzione \texttt  {00868693: addi a3, a3, 8} per arrivare a scrivere il register file dal suo ingresso allo stadio di ID. In particolare l'indirizzo 96 contiene il 13esimo valore della sequenza di Fibonacci, ovvero il numero 233.}}{14}{figure.4}\protected@file@percent }
\newlabel{printfibo}{{4}{14}{Si notino i 3 impulsi di clock che servono all'istruzione \texttt {00868693: addi a3, a3, 8} per arrivare a scrivere il register file dal suo ingresso allo stadio di ID. In particolare l'indirizzo 96 contiene il 13esimo valore della sequenza di Fibonacci, ovvero il numero 233}{figure.4}{}}
\@writefile{lof}{\contentsline {figure}{\numberline {5}{\ignorespaces Qui possiamo osservare il contenuto di 3 locazioni di memoria successive. Come atteso per la logica della sequenza di Fibonacci, abbiamo i valori 610, 987, 1597: infatti 610+987=1597}}{14}{figure.5}\protected@file@percent }
\newlabel{printfibo}{{5}{14}{Qui possiamo osservare il contenuto di 3 locazioni di memoria successive. Come atteso per la logica della sequenza di Fibonacci, abbiamo i valori 610, 987, 1597: infatti 610+987=1597}{figure.5}{}}
\@writefile{toc}{\contentsline {subsection}{\numberline {4.2}bubblesort.s}{15}{subsection.4.2}\protected@file@percent }
\@writefile{lof}{\contentsline {figure}{\numberline {6}{\ignorespaces Scrittura iniziale dell'array in memoria, quando \texttt  {memwrite} \IeC {\'e} asserito viene scritto \texttt  {writedata} alla locazione di memoria \texttt  {address}}}{16}{figure.6}\protected@file@percent }
\@writefile{lof}{\contentsline {figure}{\numberline {7}{\ignorespaces Schermata GTKWave relativa a una situazione di \emph  {branch taken} con la perdita di 3 cicli di clock per il flush dell'esecuzione delle istruzioni predette in una logica di \emph  {branch not taken}}}{16}{figure.7}\protected@file@percent }
\citation{gitlink}
\bibcite{comp}{1}
\bibcite{gitlink}{2}
\gdef\minted@oldcachelist{,
  default-pyg-prefix.pygstyle,
  default.pygstyle,
  8FDB5D108ED754A3E97A5A795B40F4764DEA5634EF880388BB1ACC9082FFC71E.pygtex,
  3E66FB4AA2EFF118E025648E7EC118024DEA5634EF880388BB1ACC9082FFC71E.pygtex,
  60DCE924B17A372B73D88D87CC07A32B4DEA5634EF880388BB1ACC9082FFC71E.pygtex,
  EBC882429D8A04233D4C0C5B09F34BF74DEA5634EF880388BB1ACC9082FFC71E.pygtex,
  052AC2088669F902786DCA346558C3484DEA5634EF880388BB1ACC9082FFC71E.pygtex,
  FCB4801F896A67F69FD61011C93A3D434DEA5634EF880388BB1ACC9082FFC71E.pygtex,
  9CDB4094B15219362BFE696A84A4A7D14DEA5634EF880388BB1ACC9082FFC71E.pygtex,
  498269CBC9D74706211456B1F3D159E54DEA5634EF880388BB1ACC9082FFC71E.pygtex,
  AD9EE01C0B1B30BD31A261CF581765F54DEA5634EF880388BB1ACC9082FFC71E.pygtex,
  EE5585135E28DD5CCE872CDDDD1EAF764DEA5634EF880388BB1ACC9082FFC71E.pygtex,
  CEF5EFC0F7CBEE36B40D781F3DE214B14DEA5634EF880388BB1ACC9082FFC71E.pygtex,
  9B4B4C14E6724159142D32B8489A533DA79493FF12CA3FFAF37871127DA26AE8.pygtex,
  69B4DC2FD7EF8D2F83FBADE323D18FA84DEA5634EF880388BB1ACC9082FFC71E.pygtex,
  418FFA3A854D9FC32949224641CC89554DEA5634EF880388BB1ACC9082FFC71E.pygtex,
  2A4FE62C46A3EBF23B5524A1187EDF4C4DEA5634EF880388BB1ACC9082FFC71E.pygtex,
  6D5E0BC883BA6C027A5DFDE9D0EE24DF4DEA5634EF880388BB1ACC9082FFC71E.pygtex,
  CBC84CA3A1E994B236500E594208B1184DEA5634EF880388BB1ACC9082FFC71E.pygtex,
  4C9CB161FA39CB125F02251222038332A79493FF12CA3FFAF37871127DA26AE8.pygtex,
  349AC914DF6FA70DABE4E935F5C7EC45A79493FF12CA3FFAF37871127DA26AE8.pygtex,
  F0193E10CE7187C71C0D2D96E05E671E82DA3FB651282F1B9CE9B7A516DE695F.pygtex}
\@writefile{lof}{\contentsline {figure}{\numberline {8}{\ignorespaces Al termine dell'esecuzione dell'algoritmo di bubblesort, l'array risulta essere correttamente ordinato come \texttt  {arr[5]=\{-5,1,2,5,9\}}}}{17}{figure.8}\protected@file@percent }
\@writefile{toc}{\contentsline {section}{\numberline {5}Conclusioni}{17}{section.5}\protected@file@percent }
